LAB_VHDL/1-FlipFlop/FlipFlop_D/simulation/qsim/flipflop_d.msim.vcd
$comment
	File created using the following command:
		vcd file flipflop_d.msim.vcd -direction
$end
$date
	Fri Nov 30 18:31:02 2018
$end
$version
	ModelSim Version 10.5b
$end
$timescale
	1ps
$end

$scope module flipflop_d_vhd_vec_tst $end
$var wire 1 ! clock $end
$var wire 1 " saida $end
$var wire 1 # v $end

$scope module i1 $end
$var wire 1 $ gnd $end
$var wire 1 % vcc $end
$var wire 1 & unknown $end
$var wire 1 ' devoe $end
$var wire 1 ( devclrn $end
$var wire 1 ) devpor $end
$var wire 1 * ww_devoe $end
$var wire 1 + ww_devclrn $end
$var wire 1 , ww_devpor $end
$var wire 1 - ww_clock $end
$var wire 1 . ww_v $end
$var wire 1 / ww_saida $end
$var wire 1 0 \saida~output_o\ $end
$var wire 1 1 \clock~input_o\ $end
$var wire 1 2 \v~input_o\ $end
$var wire 1 3 \saida~reg0_q\ $end
$upscope $end
$upscope $end
$enddefinitions $end
#0
$dumpvars
0!
0"
0#
0$
1%
x&
1'
1(
1)
1*
1+
1,
0-
0.
0/
00
01
02
03
$end
#10000
1!
1-
11
#20000
0!
1#
0-
1.
12
01
#30000
1!
1-
11
13
10
1/
1"
#40000
0!
0#
0-
0.
02
01
#50000
1!
1-
11
03
00
0/
0"
#60000
0!
1#
0-
1.
12
01
#70000
1!
1-
11
13
10
1/
1"
#80000
0!
0#
0-
0.
02
01
#90000
1!
1-
11
03
00
0/
0"
#100000
0!
1#
0-
1.
12
01
#110000
1!
1-
11
13
10
1/
1"
#120000
0!
0#
0-
0.
02
01
#130000
1!
1-
11
03
00
0/
0"
#140000
0!
1#
0-
1.
12
01
#150000
1!
1-
11
13
10
1/
1"
#160000
0!
0#
0-
0.
02
01
#170000
1!
1-
11
03
00
0/
0"
#180000
0!
1#
0-
1.
12
01
#190000
1!
1-
11
13
10
1/
1"
#200000
0!
0#
0-
0.
02
01
#210000
1!
1-
11
03
00
0/
0"
#220000
0!
1#
0-
1.
12
01
#230000
1!
1-
11
13
10
1/
1"
#240000
0!
0#
0-
0.
02
01
#250000
1!
1-
11
03
00
0/
0"
#260000
0!
1#
0-
1.
12
01
#270000
1!
1-
11
13
10
1/
1"
#280000
0!
0#
0-
0.
02
01
#290000
1!
1-
11
03
00
0/
0"
#300000
0!
1#
0-
1.
12
01
#310000
1!
1-
11
13
10
1/
1"
#320000
0!
0#
0-
0.
02
01
#330000
1!
1-
11
03
00
0/
0"
#340000
0!
1#
0-
1.
12
01
#350000
1!
1-
11
13
10
1/
1"
#360000
0!
0#
0-
0.
02
01
#370000
1!
1-
11
03
00
0/
0"
#380000
0!
1#
0-
1.
12
01
#390000
1!
1-
11
13
10
1/
1"
#400000
0!
0#
0-
0.
02
01
#410000
1!
1-
11
03
00
0/
0"
#420000
0!
1#
0-
1.
12
01
#430000
1!
1-
11
13
10
1/
1"
#440000
0!
0#
0-
0.
02
01
#450000
1!
1-
11
03
00
0/
0"
#460000
0!
1#
0-
1.
12
01
#470000
1!
1-
11
13
10
1/
1"
#480000
0!
0#
0-
0.
02
01
#490000
1!
1-
11
03
00
0/
0"
#500000
0!
1#
0-
1.
12
01
#510000
1!
1-
11
13
10
1/
1"
#520000
0!
0#
0-
0.
02
01
#530000
1!
1-
11
03
00
0/
0"
#540000
0!
1#
0-
1.
12
01
#550000
1!
1-
11
13
10
1/
1"
#560000
0!
0#
0-
0.
02
01
#570000
1!
1-
11
03
00
0/
0"
#580000
0!
1#
0-
1.
12
01
#590000
1!
1-
11
13
10
1/
1"
#600000
0!
0#
0-
0.
02
01
#610000
1!
1-
11
03
00
0/
0"
#620000
0!
1#
0-
1.
12
01
#630000
1!
1-
11
13
10
1/
1"
#640000
0!
0#
0-
0.
02
01
#650000
1!
1-
11
03
00
0/
0"
#660000
0!
1#
0-
1.
12
01
#670000
1!
1-
11
13
10
1/
1"
#680000
0!
0#
0-
0.
02
01
#690000
1!
1-
11
03
00
0/
0"
#700000
0!
1#
0-
1.
12
01
#710000
1!
1-
11
13
10
1/
1"
#720000
0!
0#
0-
0.
02
01
#730000
1!
1-
11
03
00
0/
0"
#740000
0!
1#
0-
1.
12
01
#750000
1!
1-
11
13
10
1/
1"
#760000
0!
0#
0-
0.
02
01
#770000
1!
1-
11
03
00
0/
0"
#780000
0!
1#
0-
1.
12
01
#790000
1!
1-
11
13
10
1/
1"
#800000
0!
0#
0-
0.
02
01
#810000
1!
1-
11
03
00
0/
0"
#820000
0!
1#
0-
1.
12
01
#830000
1!
1-
11
13
10
1/
1"
#840000
0!
0#
0-
0.
02
01
#850000
1!
1-
11
03
00
0/
0"
#860000
0!
1#
0-
1.
12
01
#870000
1!
1-
11
13
10
1/
1"
#880000
0!
0#
0-
0.
02
01
#890000
1!
1-
11
03
00
0/
0"
#900000
0!
1#
0-
1.
12
01
#910000
1!
1-
11
13
10
1/
1"
#920000
0!
0#
0-
0.
02
01
#930000
1!
1-
11
03
00
0/
0"
#940000
0!
1#
0-
1.
12
01
#950000
1!
1-
11
13
10
1/
1"
#960000
0!
0#
0-
0.
02
01
#970000
1!
1-
11
03
00
0/
0"
#980000
0!
1#
0-
1.
12
01
#990000
1!
1-
11
13
10
1/
1"
