11-Extensor_sinal_8_16bits/simulation/qsim/Ext_8_16bits.msim.vcd
$comment
	File created using the following command:
		vcd file Ext_8_16bits.msim.vcd -direction
$end
$date
	Wed Dec 05 01:52:02 2018
$end
$version
	ModelSim Version 10.5b
$end
$timescale
	1ps
$end

$scope module ext_8_16bits_vhd_vec_tst $end
$var wire 1 ! a [7] $end
$var wire 1 " a [6] $end
$var wire 1 # a [5] $end
$var wire 1 $ a [4] $end
$var wire 1 % a [3] $end
$var wire 1 & a [2] $end
$var wire 1 ' a [1] $end
$var wire 1 ( a [0] $end
$var wire 1 ) sinal_ex [15] $end
$var wire 1 * sinal_ex [14] $end
$var wire 1 + sinal_ex [13] $end
$var wire 1 , sinal_ex [12] $end
$var wire 1 - sinal_ex [11] $end
$var wire 1 . sinal_ex [10] $end
$var wire 1 / sinal_ex [9] $end
$var wire 1 0 sinal_ex [8] $end
$var wire 1 1 sinal_ex [7] $end
$var wire 1 2 sinal_ex [6] $end
$var wire 1 3 sinal_ex [5] $end
$var wire 1 4 sinal_ex [4] $end
$var wire 1 5 sinal_ex [3] $end
$var wire 1 6 sinal_ex [2] $end
$var wire 1 7 sinal_ex [1] $end
$var wire 1 8 sinal_ex [0] $end

$scope module i1 $end
$var wire 1 9 gnd $end
$var wire 1 : vcc $end
$var wire 1 ; unknown $end
$var wire 1 < devoe $end
$var wire 1 = devclrn $end
$var wire 1 > devpor $end
$var wire 1 ? ww_devoe $end
$var wire 1 @ ww_devclrn $end
$var wire 1 A ww_devpor $end
$var wire 1 B ww_a [7] $end
$var wire 1 C ww_a [6] $end
$var wire 1 D ww_a [5] $end
$var wire 1 E ww_a [4] $end
$var wire 1 F ww_a [3] $end
$var wire 1 G ww_a [2] $end
$var wire 1 H ww_a [1] $end
$var wire 1 I ww_a [0] $end
$var wire 1 J ww_sinal_ex [15] $end
$var wire 1 K ww_sinal_ex [14] $end
$var wire 1 L ww_sinal_ex [13] $end
$var wire 1 M ww_sinal_ex [12] $end
$var wire 1 N ww_sinal_ex [11] $end
$var wire 1 O ww_sinal_ex [10] $end
$var wire 1 P ww_sinal_ex [9] $end
$var wire 1 Q ww_sinal_ex [8] $end
$var wire 1 R ww_sinal_ex [7] $end
$var wire 1 S ww_sinal_ex [6] $end
$var wire 1 T ww_sinal_ex [5] $end
$var wire 1 U ww_sinal_ex [4] $end
$var wire 1 V ww_sinal_ex [3] $end
$var wire 1 W ww_sinal_ex [2] $end
$var wire 1 X ww_sinal_ex [1] $end
$var wire 1 Y ww_sinal_ex [0] $end
$var wire 1 Z \sinal_ex[0]~output_o\ $end
$var wire 1 [ \sinal_ex[1]~output_o\ $end
$var wire 1 \ \sinal_ex[2]~output_o\ $end
$var wire 1 ] \sinal_ex[3]~output_o\ $end
$var wire 1 ^ \sinal_ex[4]~output_o\ $end
$var wire 1 _ \sinal_ex[5]~output_o\ $end
$var wire 1 ` \sinal_ex[6]~output_o\ $end
$var wire 1 a \sinal_ex[7]~output_o\ $end
$var wire 1 b \sinal_ex[8]~output_o\ $end
$var wire 1 c \sinal_ex[9]~output_o\ $end
$var wire 1 d \sinal_ex[10]~output_o\ $end
$var wire 1 e \sinal_ex[11]~output_o\ $end
$var wire 1 f \sinal_ex[12]~output_o\ $end
$var wire 1 g \sinal_ex[13]~output_o\ $end
$var wire 1 h \sinal_ex[14]~output_o\ $end
$var wire 1 i \sinal_ex[15]~output_o\ $end
$var wire 1 j \a[0]~input_o\ $end
$var wire 1 k \a[1]~input_o\ $end
$var wire 1 l \a[2]~input_o\ $end
$var wire 1 m \a[3]~input_o\ $end
$var wire 1 n \a[4]~input_o\ $end
$var wire 1 o \a[5]~input_o\ $end
$var wire 1 p \a[6]~input_o\ $end
$var wire 1 q \a[7]~input_o\ $end
$upscope $end
$upscope $end
$enddefinitions $end
#0
$dumpvars
09
1:
x;
1<
1=
1>
1?
1@
1A
0Z
0[
0\
0]
0^
0_
0`
0a
0b
0c
0d
0e
0f
0g
0h
0i
0j
0k
0l
0m
0n
0o
0p
0q
0!
0"
0#
0$
0%
0&
0'
0(
0B
0C
0D
0E
0F
0G
0H
0I
0J
0K
0L
0M
0N
0O
0P
0Q
0R
0S
0T
0U
0V
0W
0X
0Y
0)
0*
0+
0,
0-
0.
0/
00
01
02
03
04
05
06
07
08
$end
#5000
1(
1I
1j
1Z
1Y
18
#10000
0(
1'
0I
1H
1k
0j
0Z
1[
0Y
1X
08
17
#15000
1(
1I
1j
1Z
1Y
18
#20000
0(
0'
1&
0I
0H
1G
1l
0k
0j
0Z
0[
1\
0Y
0X
1W
08
07
16
#25000
1(
1I
1j
1Z
1Y
18
#30000
0(
1'
0I
1H
1k
0j
0Z
1[
0Y
1X
08
17
#35000
1(
1I
1j
1Z
1Y
18
#40000
0(
0'
0&
1%
0I
0H
0G
1F
1m
0l
0k
0j
0Z
0[
0\
1]
0Y
0X
0W
1V
08
07
06
15
#45000
1(
1I
1j
1Z
1Y
18
#50000
0(
1'
0I
1H
1k
0j
0Z
1[
0Y
1X
08
17
#55000
1(
1I
1j
1Z
1Y
18
#60000
0(
0'
1&
0I
0H
1G
1l
0k
0j
0Z
0[
1\
0Y
0X
1W
08
07
16
#65000
1(
1I
1j
1Z
1Y
18
#70000
0(
1'
0I
1H
1k
0j
0Z
1[
0Y
1X
08
17
#75000
1(
1I
1j
1Z
1Y
18
#80000
0(
0'
0&
0%
1$
0I
0H
0G
0F
1E
1n
0m
0l
0k
0j
0Z
0[
0\
0]
1^
0Y
0X
0W
0V
1U
08
07
06
05
14
#85000
1(
1I
1j
1Z
1Y
18
#90000
0(
1'
0I
1H
1k
0j
0Z
1[
0Y
1X
08
17
#95000
1(
1I
1j
1Z
1Y
18
#100000
0(
0'
1&
0I
0H
1G
1l
0k
0j
0Z
0[
1\
0Y
0X
1W
08
07
16
#105000
1(
1I
1j
1Z
1Y
18
#110000
0(
1'
0I
1H
1k
0j
0Z
1[
0Y
1X
08
17
#115000
1(
1I
1j
1Z
1Y
18
#120000
0(
0'
0&
1%
0I
0H
0G
1F
1m
0l
0k
0j
0Z
0[
0\
1]
0Y
0X
0W
1V
08
07
06
15
#125000
1(
1I
1j
1Z
1Y
18
#130000
0(
1'
0I
1H
1k
0j
0Z
1[
0Y
1X
08
17
#135000
1(
1I
1j
1Z
1Y
18
#140000
0(
0'
1&
0I
0H
1G
1l
0k
0j
0Z
0[
1\
0Y
0X
1W
08
07
16
#145000
1(
1I
1j
1Z
1Y
18
#150000
0(
1'
0I
1H
1k
0j
0Z
1[
0Y
1X
08
17
#155000
1(
1I
1j
1Z
1Y
18
#160000
0(
0'
0&
0%
0$
1#
0I
0H
0G
0F
0E
1D
1o
0n
0m
0l
0k
0j
0Z
0[
0\
0]
0^
1_
0Y
0X
0W
0V
0U
1T
08
07
06
05
04
13
#165000
1(
1I
1j
1Z
1Y
18
#170000
0(
1'
0I
1H
1k
0j
0Z
1[
0Y
1X
08
17
#175000
1(
1I
1j
1Z
1Y
18
#180000
0(
0'
1&
0I
0H
1G
1l
0k
0j
0Z
0[
1\
0Y
0X
1W
08
07
16
#185000
1(
1I
1j
1Z
1Y
18
#190000
0(
1'
0I
1H
1k
0j
0Z
1[
0Y
1X
08
17
#195000
1(
1I
1j
1Z
1Y
18
#200000
0(
0'
0&
1%
0I
0H
0G
1F
1m
0l
0k
0j
0Z
0[
0\
1]
0Y
0X
0W
1V
08
07
06
15
#205000
1(
1I
1j
1Z
1Y
18
#210000
0(
1'
0I
1H
1k
0j
0Z
1[
0Y
1X
08
17
#215000
1(
1I
1j
1Z
1Y
18
#220000
0(
0'
1&
0I
0H
1G
1l
0k
0j
0Z
0[
1\
0Y
0X
1W
08
07
16
#225000
1(
1I
1j
1Z
1Y
18
#230000
0(
1'
0I
1H
1k
0j
0Z
1[
0Y
1X
08
17
#235000
1(
1I
1j
1Z
1Y
18
#240000
0(
0'
0&
0%
1$
0I
0H
0G
0F
1E
1n
0m
0l
0k
0j
0Z
0[
0\
0]
1^
0Y
0X
0W
0V
1U
08
07
06
05
14
#245000
1(
1I
1j
1Z
1Y
18
#250000
0(
1'
0I
1H
1k
0j
0Z
1[
0Y
1X
08
17
#255000
1(
1I
1j
1Z
1Y
18
#260000
0(
0'
1&
0I
0H
1G
1l
0k
0j
0Z
0[
1\
0Y
0X
1W
08
07
16
#265000
1(
1I
1j
1Z
1Y
18
#270000
0(
1'
0I
1H
1k
0j
0Z
1[
0Y
1X
08
17
#275000
1(
1I
1j
1Z
1Y
18
#280000
0(
0'
0&
1%
0I
0H
0G
1F
1m
0l
0k
0j
0Z
0[
0\
1]
0Y
0X
0W
1V
08
07
06
15
#285000
1(
1I
1j
1Z
1Y
18
#290000
0(
1'
0I
1H
1k
0j
0Z
1[
0Y
1X
08
17
#295000
1(
1I
1j
1Z
1Y
18
#300000
0(
0'
1&
0I
0H
1G
1l
0k
0j
0Z
0[
1\
0Y
0X
1W
08
07
16
#305000
1(
1I
1j
1Z
1Y
18
#310000
0(
1'
0I
1H
1k
0j
0Z
1[
0Y
1X
08
17
#315000
1(
1I
1j
1Z
1Y
18
#320000
0(
0'
0&
0%
0$
0#
1"
0I
0H
0G
0F
0E
0D
1C
1p
0o
0n
0m
0l
0k
0j
0Z
0[
0\
0]
0^
0_
1`
0Y
0X
0W
0V
0U
0T
1S
08
07
06
05
04
03
12
#325000
1(
1I
1j
1Z
1Y
18
#330000
0(
1'
0I
1H
1k
0j
0Z
1[
0Y
1X
08
17
#335000
1(
1I
1j
1Z
1Y
18
#340000
0(
0'
1&
0I
0H
1G
1l
0k
0j
0Z
0[
1\
0Y
0X
1W
08
07
16
#345000
1(
1I
1j
1Z
1Y
18
#350000
0(
1'
0I
1H
1k
0j
0Z
1[
0Y
1X
08
17
#355000
1(
1I
1j
1Z
1Y
18
#360000
0(
0'
0&
1%
0I
0H
0G
1F
1m
0l
0k
0j
0Z
0[
0\
1]
0Y
0X
0W
1V
08
07
06
15
#365000
1(
1I
1j
1Z
1Y
18
#370000
0(
1'
0I
1H
1k
0j
0Z
1[
0Y
1X
08
17
#375000
1(
1I
1j
1Z
1Y
18
#380000
0(
0'
1&
0I
0H
1G
1l
0k
0j
0Z
0[
1\
0Y
0X
1W
08
07
16
#385000
1(
1I
1j
1Z
1Y
18
#390000
0(
1'
0I
1H
1k
0j
0Z
1[
0Y
1X
08
17
#395000
1(
1I
1j
1Z
1Y
18
#400000
0(
0'
0&
0%
1$
0I
0H
0G
0F
1E
1n
0m
0l
0k
0j
0Z
0[
0\
0]
1^
0Y
0X
0W
0V
1U
08
07
06
05
14
#405000
1(
1I
1j
1Z
1Y
18
#410000
0(
1'
0I
1H
1k
0j
0Z
1[
0Y
1X
08
17
#415000
1(
1I
1j
1Z
1Y
18
#420000
0(
0'
1&
0I
0H
1G
1l
0k
0j
0Z
0[
1\
0Y
0X
1W
08
07
16
#425000
1(
1I
1j
1Z
1Y
18
#430000
0(
1'
0I
1H
1k
0j
0Z
1[
0Y
1X
08
17
#435000
1(
1I
1j
1Z
1Y
18
#440000
0(
0'
0&
1%
0I
0H
0G
1F
1m
0l
0k
0j
0Z
0[
0\
1]
0Y
0X
0W
1V
08
07
06
15
#445000
1(
1I
1j
1Z
1Y
18
#450000
0(
1'
0I
1H
1k
0j
0Z
1[
0Y
1X
08
17
#455000
1(
1I
1j
1Z
1Y
18
#460000
0(
0'
1&
0I
0H
1G
1l
0k
0j
0Z
0[
1\
0Y
0X
1W
08
07
16
#465000
1(
1I
1j
1Z
1Y
18
#470000
0(
1'
0I
1H
1k
0j
0Z
1[
0Y
1X
08
17
#475000
1(
1I
1j
1Z
1Y
18
#480000
0(
0'
0&
0%
0$
1#
0I
0H
0G
0F
0E
1D
1o
0n
0m
0l
0k
0j
0Z
0[
0\
0]
0^
1_
0Y
0X
0W
0V
0U
1T
08
07
06
05
04
13
#485000
1(
1I
1j
1Z
1Y
18
#490000
0(
1'
0I
1H
1k
0j
0Z
1[
0Y
1X
08
17
#495000
1(
1I
1j
1Z
1Y
18
#500000
0(
0'
1&
0I
0H
1G
1l
0k
0j
0Z
0[
1\
0Y
0X
1W
08
07
16
#505000
1(
1I
1j
1Z
1Y
18
#510000
0(
1'
0I
1H
1k
0j
0Z
1[
0Y
1X
08
17
#515000
1(
1I
1j
1Z
1Y
18
#520000
0(
0'
0&
1%
0I
0H
0G
1F
1m
0l
0k
0j
0Z
0[
0\
1]
0Y
0X
0W
1V
08
07
06
15
#525000
1(
1I
1j
1Z
1Y
18
#530000
0(
1'
0I
1H
1k
0j
0Z
1[
0Y
1X
08
17
#535000
1(
1I
1j
1Z
1Y
18
#540000
0(
0'
1&
0I
0H
1G
1l
0k
0j
0Z
0[
1\
0Y
0X
1W
08
07
16
#545000
1(
1I
1j
1Z
1Y
18
#550000
0(
1'
0I
1H
1k
0j
0Z
1[
0Y
1X
08
17
#555000
1(
1I
1j
1Z
1Y
18
#560000
0(
0'
0&
0%
1$
0I
0H
0G
0F
1E
1n
0m
0l
0k
0j
0Z
0[
0\
0]
1^
0Y
0X
0W
0V
1U
08
07
06
05
14
#565000
1(
1I
1j
1Z
1Y
18
#570000
0(
1'
0I
1H
1k
0j
0Z
1[
0Y
1X
08
17
#575000
1(
1I
1j
1Z
1Y
18
#580000
0(
0'
1&
0I
0H
1G
1l
0k
0j
0Z
0[
1\
0Y
0X
1W
08
07
16
#585000
1(
1I
1j
1Z
1Y
18
#590000
0(
1'
0I
1H
1k
0j
0Z
1[
0Y
1X
08
17
#595000
1(
1I
1j
1Z
1Y
18
#600000
0(
0'
0&
1%
0I
0H
0G
1F
1m
0l
0k
0j
0Z
0[
0\
1]
0Y
0X
0W
1V
08
07
06
15
#605000
1(
1I
1j
1Z
1Y
18
#610000
0(
1'
0I
1H
1k
0j
0Z
1[
0Y
1X
08
17
#615000
1(
1I
1j
1Z
1Y
18
#620000
0(
0'
1&
0I
0H
1G
1l
0k
0j
0Z
0[
1\
0Y
0X
1W
08
07
16
#625000
1(
1I
1j
1Z
1Y
18
#630000
0(
1'
0I
1H
1k
0j
0Z
1[
0Y
1X
08
17
#635000
1(
1I
1j
1Z
1Y
18
#640000
0(
0'
0&
0%
0$
0#
0"
1!
0I
0H
0G
0F
0E
0D
0C
1B
1q
0p
0o
0n
0m
0l
0k
0j
0Z
0[
0\
0]
0^
0_
0`
1a
0Y
0X
0W
0V
0U
0T
0S
1R
08
07
06
05
04
03
02
11
#645000
1(
1I
1j
1Z
1Y
18
#650000
0(
1'
0I
1H
1k
0j
0Z
1[
0Y
1X
08
17
#655000
1(
1I
1j
1Z
1Y
18
#660000
0(
0'
1&
0I
0H
1G
1l
0k
0j
0Z
0[
1\
0Y
0X
1W
08
07
16
#665000
1(
1I
1j
1Z
1Y
18
#670000
0(
1'
0I
1H
1k
0j
0Z
1[
0Y
1X
08
17
#675000
1(
1I
1j
1Z
1Y
18
#680000
0(
0'
0&
1%
0I
0H
0G
1F
1m
0l
0k
0j
0Z
0[
0\
1]
0Y
0X
0W
1V
08
07
06
15
#685000
1(
1I
1j
1Z
1Y
18
#690000
0(
1'
0I
1H
1k
0j
0Z
1[
0Y
1X
08
17
#695000
1(
1I
1j
1Z
1Y
18
#700000
0(
0'
1&
0I
0H
1G
1l
0k
0j
0Z
0[
1\
0Y
0X
1W
08
07
16
#705000
1(
1I
1j
1Z
1Y
18
#710000
0(
1'
0I
1H
1k
0j
0Z
1[
0Y
1X
08
17
#715000
1(
1I
1j
1Z
1Y
18
#720000
0(
0'
0&
0%
1$
0I
0H
0G
0F
1E
1n
0m
0l
0k
0j
0Z
0[
0\
0]
1^
0Y
0X
0W
0V
1U
08
07
06
05
14
#725000
1(
1I
1j
1Z
1Y
18
#730000
0(
1'
0I
1H
1k
0j
0Z
1[
0Y
1X
08
17
#735000
1(
1I
1j
1Z
1Y
18
#740000
0(
0'
1&
0I
0H
1G
1l
0k
0j
0Z
0[
1\
0Y
0X
1W
08
07
16
#745000
1(
1I
1j
1Z
1Y
18
#750000
0(
1'
0I
1H
1k
0j
0Z
1[
0Y
1X
08
17
#755000
1(
1I
1j
1Z
1Y
18
#760000
0(
0'
0&
1%
0I
0H
0G
1F
1m
0l
0k
0j
0Z
0[
0\
1]
0Y
0X
0W
1V
08
07
06
15
#765000
1(
1I
1j
1Z
1Y
18
#770000
0(
1'
0I
1H
1k
0j
0Z
1[
0Y
1X
08
17
#775000
1(
1I
1j
1Z
1Y
18
#780000
0(
0'
1&
0I
0H
1G
1l
0k
0j
0Z
0[
1\
0Y
0X
1W
08
07
16
#785000
1(
1I
1j
1Z
1Y
18
#790000
0(
1'
0I
1H
1k
0j
0Z
1[
0Y
1X
08
17
#795000
1(
1I
1j
1Z
1Y
18
#800000
0(
0'
0&
0%
0$
1#
0I
0H
0G
0F
0E
1D
1o
0n
0m
0l
0k
0j
0Z
0[
0\
0]
0^
1_
0Y
0X
0W
0V
0U
1T
08
07
06
05
04
13
#805000
1(
1I
1j
1Z
1Y
18
#810000
0(
1'
0I
1H
1k
0j
0Z
1[
0Y
1X
08
17
#815000
1(
1I
1j
1Z
1Y
18
#820000
0(
0'
1&
0I
0H
1G
1l
0k
0j
0Z
0[
1\
0Y
0X
1W
08
07
16
#825000
1(
1I
1j
1Z
1Y
18
#830000
0(
1'
0I
1H
1k
0j
0Z
1[
0Y
1X
08
17
#835000
1(
1I
1j
1Z
1Y
18
#840000
0(
0'
0&
1%
0I
0H
0G
1F
1m
0l
0k
0j
0Z
0[
0\
1]
0Y
0X
0W
1V
08
07
06
15
#845000
1(
1I
1j
1Z
1Y
18
#850000
0(
1'
0I
1H
1k
0j
0Z
1[
0Y
1X
08
17
#855000
1(
1I
1j
1Z
1Y
18
#860000
0(
0'
1&
0I
0H
1G
1l
0k
0j
0Z
0[
1\
0Y
0X
1W
08
07
16
#865000
1(
1I
1j
1Z
1Y
18
#870000
0(
1'
0I
1H
1k
0j
0Z
1[
0Y
1X
08
17
#875000
1(
1I
1j
1Z
1Y
18
#880000
0(
0'
0&
0%
1$
0I
0H
0G
0F
1E
1n
0m
0l
0k
0j
0Z
0[
0\
0]
1^
0Y
0X
0W
0V
1U
08
07
06
05
14
#885000
1(
1I
1j
1Z
1Y
18
#890000
0(
1'
0I
1H
1k
0j
0Z
1[
0Y
1X
08
17
#895000
1(
1I
1j
1Z
1Y
18
#900000
0(
0'
1&
0I
0H
1G
1l
0k
0j
0Z
0[
1\
0Y
0X
1W
08
07
16
#905000
1(
1I
1j
1Z
1Y
18
#910000
0(
1'
0I
1H
1k
0j
0Z
1[
0Y
1X
08
17
#915000
1(
1I
1j
1Z
1Y
18
#920000
0(
0'
0&
1%
0I
0H
0G
1F
1m
0l
0k
0j
0Z
0[
0\
1]
0Y
0X
0W
1V
08
07
06
15
#925000
1(
1I
1j
1Z
1Y
18
#930000
0(
1'
0I
1H
1k
0j
0Z
1[
0Y
1X
08
17
#935000
1(
1I
1j
1Z
1Y
18
#940000
0(
0'
1&
0I
0H
1G
1l
0k
0j
0Z
0[
1\
0Y
0X
1W
08
07
16
#945000
1(
1I
1j
1Z
1Y
18
#950000
0(
1'
0I
1H
1k
0j
0Z
1[
0Y
1X
08
17
#955000
1(
1I
1j
1Z
1Y
18
#960000
0(
0'
0&
0%
0$
0#
1"
0I
0H
0G
0F
0E
0D
1C
1p
0o
0n
0m
0l
0k
0j
0Z
0[
0\
0]
0^
0_
1`
0Y
0X
0W
0V
0U
0T
1S
08
07
06
05
04
03
12
#965000
1(
1I
1j
1Z
1Y
18
#970000
0(
1'
0I
1H
1k
0j
0Z
1[
0Y
1X
08
17
#975000
1(
1I
1j
1Z
1Y
18
#980000
0(
0'
1&
0I
0H
1G
1l
0k
0j
0Z
0[
1\
0Y
0X
1W
08
07
16
#985000
1(
1I
1j
1Z
1Y
18
#990000
0(
1'
0I
1H
1k
0j
0Z
1[
0Y
1X
08
17
#995000
1(
1I
1j
1Z
1Y
18
