LAB_VHDL/2-multi_4x1/simulation/qsim/multi_4x1.msim.vcd
$comment
	File created using the following command:
		vcd file multi_4x1.msim.vcd -direction
$end
$date
	Thu Nov 29 18:50:27 2018
$end
$version
	ModelSim Version 10.5b
$end
$timescale
	1ps
$end

$scope module multiplex_vhd_vec_tst $end
$var wire 1 ! escolha [1] $end
$var wire 1 " escolha [0] $end
$var wire 1 # p1 [1] $end
$var wire 1 $ p1 [0] $end
$var wire 1 % p2 [1] $end
$var wire 1 & p2 [0] $end
$var wire 1 ' p3 [1] $end
$var wire 1 ( p3 [0] $end
$var wire 1 ) p4 [1] $end
$var wire 1 * p4 [0] $end
$var wire 1 + saida [1] $end
$var wire 1 , saida [0] $end

$scope module i1 $end
$var wire 1 - gnd $end
$var wire 1 . vcc $end
$var wire 1 / unknown $end
$var wire 1 0 devoe $end
$var wire 1 1 devclrn $end
$var wire 1 2 devpor $end
$var wire 1 3 ww_devoe $end
$var wire 1 4 ww_devclrn $end
$var wire 1 5 ww_devpor $end
$var wire 1 6 ww_p1 [1] $end
$var wire 1 7 ww_p1 [0] $end
$var wire 1 8 ww_p2 [1] $end
$var wire 1 9 ww_p2 [0] $end
$var wire 1 : ww_p3 [1] $end
$var wire 1 ; ww_p3 [0] $end
$var wire 1 < ww_p4 [1] $end
$var wire 1 = ww_p4 [0] $end
$var wire 1 > ww_escolha [1] $end
$var wire 1 ? ww_escolha [0] $end
$var wire 1 @ ww_saida [1] $end
$var wire 1 A ww_saida [0] $end
$var wire 1 B \saida[0]~output_o\ $end
$var wire 1 C \saida[1]~output_o\ $end
$var wire 1 D \p1[0]~input_o\ $end
$var wire 1 E \p2[0]~input_o\ $end
$var wire 1 F \p3[0]~input_o\ $end
$var wire 1 G \p4[0]~input_o\ $end
$var wire 1 H \escolha[0]~input_o\ $end
$var wire 1 I \escolha[1]~input_o\ $end
$var wire 1 J \Mux1~0_combout\ $end
$var wire 1 K \p1[1]~input_o\ $end
$var wire 1 L \p2[1]~input_o\ $end
$var wire 1 M \p3[1]~input_o\ $end
$var wire 1 N \p4[1]~input_o\ $end
$var wire 1 O \Mux0~0_combout\ $end
$var wire 1 P \ALT_INV_p4[1]~input_o\ $end
$var wire 1 Q \ALT_INV_p3[1]~input_o\ $end
$var wire 1 R \ALT_INV_p2[1]~input_o\ $end
$var wire 1 S \ALT_INV_p1[1]~input_o\ $end
$var wire 1 T \ALT_INV_escolha[1]~input_o\ $end
$var wire 1 U \ALT_INV_escolha[0]~input_o\ $end
$var wire 1 V \ALT_INV_p4[0]~input_o\ $end
$var wire 1 W \ALT_INV_p3[0]~input_o\ $end
$var wire 1 X \ALT_INV_p2[0]~input_o\ $end
$var wire 1 Y \ALT_INV_p1[0]~input_o\ $end
$upscope $end
$upscope $end
$enddefinitions $end
#0
$dumpvars
0-
1.
x/
10
11
12
13
14
15
0B
0C
0D
0E
0F
0G
0H
0I
0J
0K
0L
0M
0N
0O
1P
1Q
1R
1S
1T
1U
1V
1W
1X
1Y
0!
0"
0#
0$
0%
0&
0'
0(
0)
0*
06
07
08
09
0:
0;
0<
0=
0>
0?
0@
0A
0+
0,
$end
#10000
1"
1$
1?
17
1D
1H
0U
0Y
#20000
0"
0$
1!
1#
1&
0?
1>
07
16
19
1E
1K
0D
1I
0H
1U
0T
1Y
0S
0X
#30000
1"
1$
1(
1?
17
1;
1F
1D
1H
0U
0Y
0W
#40000
0"
0$
0!
0#
0&
1%
1*
0?
0>
07
06
09
18
1=
1G
1L
0E
0K
0D
0I
0H
1U
1T
1Y
1S
1X
0R
0V
#50000
1"
1$
1?
17
1D
1H
0U
0Y
1O
1C
1@
1+
#60000
0"
0$
1!
1#
1&
0(
1'
0?
1>
07
16
19
0;
1:
1M
0F
1E
1K
0D
1I
0H
1U
0T
1Y
0S
0X
1W
0Q
#70000
1"
1$
1?
17
1D
1H
0U
0Y
1J
0O
0C
1B
0@
1A
1,
0+
#80000
0"
0$
0!
0#
0&
0%
0*
1)
0?
0>
07
06
09
08
0=
1<
1N
0G
0L
0E
0K
0D
0I
0H
1U
1T
1Y
1S
1X
1R
1V
0P
0J
0B
0A
0,
#90000
1"
1$
1(
1?
17
1;
1F
1D
1H
0U
0Y
0W
#100000
0"
0$
1!
1#
1&
0?
1>
07
16
19
1E
1K
0D
1I
0H
1U
0T
1Y
0S
0X
1J
1O
1C
1B
1@
1A
1,
1+
#110000
1"
1$
1?
17
1D
1H
0U
0Y
0J
0B
0A
0,
#120000
0"
0$
0!
0#
0&
0(
1%
1*
0'
0?
0>
07
06
09
18
0;
0:
1=
1G
0M
0F
1L
0E
0K
0D
0I
0H
1U
1T
1Y
1S
1X
0R
1W
1Q
0V
0O
0C
0@
0+
#130000
1"
1$
1?
17
1D
1H
0U
0Y
1O
1C
1@
1+
#140000
0"
0$
1!
1#
1&
0?
1>
07
16
19
1E
1K
0D
1I
0H
1U
0T
1Y
0S
0X
0O
0C
0@
0+
#150000
1"
1$
1(
1?
17
1;
1F
1D
1H
0U
0Y
0W
1J
1O
1C
1B
1@
1A
1,
1+
#160000
0"
0$
0!
0#
0&
0%
0*
0)
0?
0>
07
06
09
08
0=
0<
0N
0G
0L
0E
0K
0D
0I
0H
1U
1T
1Y
1S
1X
1R
1V
1P
0J
0O
0C
0B
0@
0A
0,
0+
#170000
1"
1$
1?
17
1D
1H
0U
0Y
#180000
0"
0$
1!
1#
1&
0(
1'
0?
1>
07
16
19
0;
1:
1M
0F
1E
1K
0D
1I
0H
1U
0T
1Y
0S
0X
1W
0Q
1O
1C
1@
1+
#190000
1"
1$
1?
17
1D
1H
0U
0Y
0O
0C
0@
0+
#200000
0"
0$
0!
0#
0&
1%
1*
0?
0>
07
06
09
18
1=
1G
1L
0E
0K
0D
0I
0H
1U
1T
1Y
1S
1X
0R
0V
#210000
1"
1$
1(
1?
17
1;
1F
1D
1H
0U
0Y
0W
1O
1C
1@
1+
#220000
0"
0$
1!
1#
1&
0?
1>
07
16
19
1E
1K
0D
1I
0H
1U
0T
1Y
0S
0X
1J
1B
1A
1,
#230000
1"
1$
1?
17
1D
1H
0U
0Y
0O
0C
0@
0+
#240000
0"
0$
0!
0#
0&
0(
0%
0*
0'
1)
0?
0>
07
06
09
08
0;
0:
0=
1<
1N
0G
0M
0F
0L
0E
0K
0D
0I
0H
1U
1T
1Y
1S
1X
1R
1W
1Q
1V
0P
0J
0B
0A
0,
#250000
1"
1$
1?
17
1D
1H
0U
0Y
#260000
0"
0$
1!
1#
1&
0?
1>
07
16
19
1E
1K
0D
1I
0H
1U
0T
1Y
0S
0X
#270000
1"
1$
1(
1?
17
1;
1F
1D
1H
0U
0Y
0W
1O
1C
1@
1+
#280000
0"
0$
0!
0#
0&
1%
1*
0?
0>
07
06
09
18
1=
1G
1L
0E
0K
0D
0I
0H
1U
1T
1Y
1S
1X
0R
0V
0O
0C
0@
0+
#290000
1"
1$
1?
17
1D
1H
0U
0Y
1O
1C
1@
1+
#300000
0"
0$
1!
1#
1&
0(
1'
0?
1>
07
16
19
0;
1:
1M
0F
1E
1K
0D
1I
0H
1U
0T
1Y
0S
0X
1W
0Q
#310000
1"
1$
1?
17
1D
1H
0U
0Y
1J
1B
1A
1,
#320000
0"
0$
0!
0#
0&
0%
0*
0)
0?
0>
07
06
09
08
0=
0<
0N
0G
0L
0E
0K
0D
0I
0H
1U
1T
1Y
1S
1X
1R
1V
1P
0J
0O
0C
0B
0@
0A
0,
0+
#330000
1"
1$
1(
1?
17
1;
1F
1D
1H
0U
0Y
0W
#340000
0"
0$
1!
1#
1&
0?
1>
07
16
19
1E
1K
0D
1I
0H
1U
0T
1Y
0S
0X
1J
1O
1C
1B
1@
1A
1,
1+
#350000
1"
1$
1?
17
1D
1H
0U
0Y
0J
0O
0C
0B
0@
0A
0,
0+
#360000
0"
0$
0!
0#
0&
0(
1%
1*
0'
0?
0>
07
06
09
18
0;
0:
1=
1G
0M
0F
1L
0E
0K
0D
0I
0H
1U
1T
1Y
1S
1X
0R
1W
1Q
0V
#370000
1"
1$
1?
17
1D
1H
0U
0Y
1O
1C
1@
1+
#380000
0"
0$
1!
1#
1&
0?
1>
07
16
19
1E
1K
0D
1I
0H
1U
0T
1Y
0S
0X
0O
0C
0@
0+
#390000
1"
1$
1(
1?
17
1;
1F
1D
1H
0U
0Y
0W
1J
1B
1A
1,
#400000
0"
0$
0!
0#
0&
0%
0*
1)
0?
0>
07
06
09
08
0=
1<
1N
0G
0L
0E
0K
0D
0I
0H
1U
1T
1Y
1S
1X
1R
1V
0P
0J
0B
0A
0,
#410000
1"
1$
1?
17
1D
1H
0U
0Y
#420000
0"
0$
1!
1#
1&
0(
1'
0?
1>
07
16
19
0;
1:
1M
0F
1E
1K
0D
1I
0H
1U
0T
1Y
0S
0X
1W
0Q
1O
1C
1@
1+
#430000
1"
1$
1?
17
1D
1H
0U
0Y
#440000
0"
0$
0!
0#
0&
1%
1*
0?
0>
07
06
09
18
1=
1G
1L
0E
0K
0D
0I
0H
1U
1T
1Y
1S
1X
0R
0V
0O
0C
0@
0+
#450000
1"
1$
1(
1?
17
1;
1F
1D
1H
0U
0Y
0W
1O
1C
1@
1+
#460000
0"
0$
1!
1#
1&
0?
1>
07
16
19
1E
1K
0D
1I
0H
1U
0T
1Y
0S
0X
1J
1B
1A
1,
#470000
1"
1$
1?
17
1D
1H
0U
0Y
#480000
0"
0$
0!
0#
0&
0(
0%
0*
0'
0)
0?
0>
07
06
09
08
0;
0:
0=
0<
0N
0G
0M
0F
0L
0E
0K
0D
0I
0H
1U
1T
1Y
1S
1X
1R
1W
1Q
1V
1P
0J
0O
0C
0B
0@
0A
0,
0+
#490000
1"
1$
1?
17
1D
1H
0U
0Y
#500000
0"
0$
1!
1#
1&
0?
1>
07
16
19
1E
1K
0D
1I
0H
1U
0T
1Y
0S
0X
#510000
1"
1$
1(
1?
17
1;
1F
1D
1H
0U
0Y
0W
#520000
0"
0$
0!
0#
0&
1%
1*
0?
0>
07
06
09
18
1=
1G
1L
0E
0K
0D
0I
0H
1U
1T
1Y
1S
1X
0R
0V
#530000
1"
1$
1?
17
1D
1H
0U
0Y
1O
1C
1@
1+
#540000
0"
0$
1!
1#
1&
0(
1'
0?
1>
07
16
19
0;
1:
1M
0F
1E
1K
0D
1I
0H
1U
0T
1Y
0S
0X
1W
0Q
#550000
1"
1$
1?
17
1D
1H
0U
0Y
1J
0O
0C
1B
0@
1A
1,
0+
#560000
0"
0$
0!
0#
0&
0%
0*
1)
0?
0>
07
06
09
08
0=
1<
1N
0G
0L
0E
0K
0D
0I
0H
1U
1T
1Y
1S
1X
1R
1V
0P
0J
0B
0A
0,
#570000
1"
1$
1(
1?
17
1;
1F
1D
1H
0U
0Y
0W
#580000
0"
0$
1!
1#
1&
0?
1>
07
16
19
1E
1K
0D
1I
0H
1U
0T
1Y
0S
0X
1J
1O
1C
1B
1@
1A
1,
1+
#590000
1"
1$
1?
17
1D
1H
0U
0Y
0J
0B
0A
0,
#600000
0"
0$
0!
0#
0&
0(
1%
1*
0'
0?
0>
07
06
09
18
0;
0:
1=
1G
0M
0F
1L
0E
0K
0D
0I
0H
1U
1T
1Y
1S
1X
0R
1W
1Q
0V
0O
0C
0@
0+
#610000
1"
1$
1?
17
1D
1H
0U
0Y
1O
1C
1@
1+
#620000
0"
0$
1!
1#
1&
0?
1>
07
16
19
1E
1K
0D
1I
0H
1U
0T
1Y
0S
0X
0O
0C
0@
0+
#630000
1"
1$
1(
1?
17
1;
1F
1D
1H
0U
0Y
0W
1J
1O
1C
1B
1@
1A
1,
1+
#640000
0"
0$
0!
0#
0&
0%
0*
0)
0?
0>
07
06
09
08
0=
0<
0N
0G
0L
0E
0K
0D
0I
0H
1U
1T
1Y
1S
1X
1R
1V
1P
0J
0O
0C
0B
0@
0A
0,
0+
#650000
1"
1$
1?
17
1D
1H
0U
0Y
#660000
0"
0$
1!
1#
1&
0(
1'
0?
1>
07
16
19
0;
1:
1M
0F
1E
1K
0D
1I
0H
1U
0T
1Y
0S
0X
1W
0Q
1O
1C
1@
1+
#670000
1"
1$
1?
17
1D
1H
0U
0Y
0O
0C
0@
0+
#680000
0"
0$
0!
0#
0&
1%
1*
0?
0>
07
06
09
18
1=
1G
1L
0E
0K
0D
0I
0H
1U
1T
1Y
1S
1X
0R
0V
#690000
1"
1$
1(
1?
17
1;
1F
1D
1H
0U
0Y
0W
1O
1C
1@
1+
#700000
0"
0$
1!
1#
1&
0?
1>
07
16
19
1E
1K
0D
1I
0H
1U
0T
1Y
0S
0X
1J
1B
1A
1,
#710000
1"
1$
1?
17
1D
1H
0U
0Y
0O
0C
0@
0+
#720000
0"
0$
0!
0#
0&
0(
0%
0*
0'
1)
0?
0>
07
06
09
08
0;
0:
0=
1<
1N
0G
0M
0F
0L
0E
0K
0D
0I
0H
1U
1T
1Y
1S
1X
1R
1W
1Q
1V
0P
0J
0B
0A
0,
#730000
1"
1$
1?
17
1D
1H
0U
0Y
#740000
0"
0$
1!
1#
1&
0?
1>
07
16
19
1E
1K
0D
1I
0H
1U
0T
1Y
0S
0X
#750000
1"
1$
1(
1?
17
1;
1F
1D
1H
0U
0Y
0W
1O
1C
1@
1+
#760000
0"
0$
0!
0#
0&
1%
1*
0?
0>
07
06
09
18
1=
1G
1L
0E
0K
0D
0I
0H
1U
1T
1Y
1S
1X
0R
0V
0O
0C
0@
0+
#770000
1"
1$
1?
17
1D
1H
0U
0Y
1O
1C
1@
1+
#780000
0"
0$
1!
1#
1&
0(
1'
0?
1>
07
16
19
0;
1:
1M
0F
1E
1K
0D
1I
0H
1U
0T
1Y
0S
0X
1W
0Q
#790000
1"
1$
1?
17
1D
1H
0U
0Y
1J
1B
1A
1,
#800000
0"
0$
0!
0#
0&
0%
0*
0)
0?
0>
07
06
09
08
0=
0<
0N
0G
0L
0E
0K
0D
0I
0H
1U
1T
1Y
1S
1X
1R
1V
1P
0J
0O
0C
0B
0@
0A
0,
0+
#810000
1"
1$
1(
1?
17
1;
1F
1D
1H
0U
0Y
0W
#820000
0"
0$
1!
1#
1&
0?
1>
07
16
19
1E
1K
0D
1I
0H
1U
0T
1Y
0S
0X
1J
1O
1C
1B
1@
1A
1,
1+
#830000
1"
1$
1?
17
1D
1H
0U
0Y
0J
0O
0C
0B
0@
0A
0,
0+
#840000
0"
0$
0!
0#
0&
0(
1%
1*
0'
0?
0>
07
06
09
18
0;
0:
1=
1G
0M
0F
1L
0E
0K
0D
0I
0H
1U
1T
1Y
1S
1X
0R
1W
1Q
0V
#850000
1"
1$
1?
17
1D
1H
0U
0Y
1O
1C
1@
1+
#860000
0"
0$
1!
1#
1&
0?
1>
07
16
19
1E
1K
0D
1I
0H
1U
0T
1Y
0S
0X
0O
0C
0@
0+
#870000
1"
1$
1(
1?
17
1;
1F
1D
1H
0U
0Y
0W
1J
1B
1A
1,
#880000
0"
0$
0!
0#
0&
0%
0*
1)
0?
0>
07
06
09
08
0=
1<
1N
0G
0L
0E
0K
0D
0I
0H
1U
1T
1Y
1S
1X
1R
1V
0P
0J
0B
0A
0,
#890000
1"
1$
1?
17
1D
1H
0U
0Y
#900000
0"
0$
1!
1#
1&
0(
1'
0?
1>
07
16
19
0;
1:
1M
0F
1E
1K
0D
1I
0H
1U
0T
1Y
0S
0X
1W
0Q
1O
1C
1@
1+
#910000
1"
1$
1?
17
1D
1H
0U
0Y
#920000
0"
0$
0!
0#
0&
1%
1*
0?
0>
07
06
09
18
1=
1G
1L
0E
0K
0D
0I
0H
1U
1T
1Y
1S
1X
0R
0V
0O
0C
0@
0+
#930000
1"
1$
1(
1?
17
1;
1F
1D
1H
0U
0Y
0W
1O
1C
1@
1+
#940000
0"
0$
1!
1#
1&
0?
1>
07
16
19
1E
1K
0D
1I
0H
1U
0T
1Y
0S
0X
1J
1B
1A
1,
#950000
1"
1$
1?
17
1D
1H
0U
0Y
#960000
0"
0$
0!
0#
0&
0(
0%
0*
0'
0)
0?
0>
07
06
09
08
0;
0:
0=
0<
0N
0G
0M
0F
0L
0E
0K
0D
0I
0H
1U
1T
1Y
1S
1X
1R
1W
1Q
1V
1P
0J
0O
0C
0B
0@
0A
0,
0+
#970000
1"
1$
1?
17
1D
1H
0U
0Y
#980000
0"
0$
1!
1#
1&
0?
1>
07
16
19
1E
1K
0D
1I
0H
1U
0T
1Y
0S
0X
#990000
1"
1$
1(
1?
17
1;
1F
1D
1H
0U
0Y
0W
