LAB_VHDL/5 - ROM_16bits/simulation/qsim/ROM_16bits.msim.vcd
$comment
	File created using the following command:
		vcd file ROM_16bits.msim.vcd -direction
$end
$date
	Wed Dec 05 00:54:15 2018
$end
$version
	ModelSim Version 10.5b
$end
$timescale
	1ps
$end

$scope module rom_16bits_vhd_vec_tst $end
$var wire 1 ! address [15] $end
$var wire 1 " address [14] $end
$var wire 1 # address [13] $end
$var wire 1 $ address [12] $end
$var wire 1 % address [11] $end
$var wire 1 & address [10] $end
$var wire 1 ' address [9] $end
$var wire 1 ( address [8] $end
$var wire 1 ) address [7] $end
$var wire 1 * address [6] $end
$var wire 1 + address [5] $end
$var wire 1 , address [4] $end
$var wire 1 - address [3] $end
$var wire 1 . address [2] $end
$var wire 1 / address [1] $end
$var wire 1 0 address [0] $end
$var wire 1 1 data [3] $end
$var wire 1 2 data [2] $end
$var wire 1 3 data [1] $end
$var wire 1 4 data [0] $end

$scope module i1 $end
$var wire 1 5 gnd $end
$var wire 1 6 vcc $end
$var wire 1 7 unknown $end
$var wire 1 8 devoe $end
$var wire 1 9 devclrn $end
$var wire 1 : devpor $end
$var wire 1 ; ww_devoe $end
$var wire 1 < ww_devclrn $end
$var wire 1 = ww_devpor $end
$var wire 1 > ww_address [15] $end
$var wire 1 ? ww_address [14] $end
$var wire 1 @ ww_address [13] $end
$var wire 1 A ww_address [12] $end
$var wire 1 B ww_address [11] $end
$var wire 1 C ww_address [10] $end
$var wire 1 D ww_address [9] $end
$var wire 1 E ww_address [8] $end
$var wire 1 F ww_address [7] $end
$var wire 1 G ww_address [6] $end
$var wire 1 H ww_address [5] $end
$var wire 1 I ww_address [4] $end
$var wire 1 J ww_address [3] $end
$var wire 1 K ww_address [2] $end
$var wire 1 L ww_address [1] $end
$var wire 1 M ww_address [0] $end
$var wire 1 N ww_data [3] $end
$var wire 1 O ww_data [2] $end
$var wire 1 P ww_data [1] $end
$var wire 1 Q ww_data [0] $end
$var wire 1 R \data[0]~output_o\ $end
$var wire 1 S \data[1]~output_o\ $end
$var wire 1 T \data[2]~output_o\ $end
$var wire 1 U \data[3]~output_o\ $end
$var wire 1 V \address[0]~input_o\ $end
$var wire 1 W \address[4]~input_o\ $end
$var wire 1 X \address[5]~input_o\ $end
$var wire 1 Y \address[6]~input_o\ $end
$var wire 1 Z \address[7]~input_o\ $end
$var wire 1 [ \address[8]~input_o\ $end
$var wire 1 \ \address[9]~input_o\ $end
$var wire 1 ] \Equal0~0_combout\ $end
$var wire 1 ^ \address[10]~input_o\ $end
$var wire 1 _ \address[11]~input_o\ $end
$var wire 1 ` \address[12]~input_o\ $end
$var wire 1 a \address[13]~input_o\ $end
$var wire 1 b \address[14]~input_o\ $end
$var wire 1 c \address[15]~input_o\ $end
$var wire 1 d \Equal0~1_combout\ $end
$var wire 1 e \WideNor0~0_combout\ $end
$var wire 1 f \WideNor0~combout\ $end
$var wire 1 g \address[1]~input_o\ $end
$var wire 1 h \WideOr5~0_combout\ $end
$var wire 1 i \address[2]~input_o\ $end
$var wire 1 j \WideOr3~combout\ $end
$var wire 1 k \address[3]~input_o\ $end
$var wire 1 l \WideOr1~combout\ $end
$var wire 1 m \ALT_INV_address[15]~input_o\ $end
$var wire 1 n \ALT_INV_address[14]~input_o\ $end
$var wire 1 o \ALT_INV_address[13]~input_o\ $end
$var wire 1 p \ALT_INV_address[12]~input_o\ $end
$var wire 1 q \ALT_INV_address[11]~input_o\ $end
$var wire 1 r \ALT_INV_address[10]~input_o\ $end
$var wire 1 s \ALT_INV_address[9]~input_o\ $end
$var wire 1 t \ALT_INV_address[8]~input_o\ $end
$var wire 1 u \ALT_INV_address[7]~input_o\ $end
$var wire 1 v \ALT_INV_address[6]~input_o\ $end
$var wire 1 w \ALT_INV_address[5]~input_o\ $end
$var wire 1 x \ALT_INV_address[4]~input_o\ $end
$var wire 1 y \ALT_INV_address[0]~input_o\ $end
$var wire 1 z \ALT_INV_address[2]~input_o\ $end
$var wire 1 { \ALT_INV_address[3]~input_o\ $end
$var wire 1 | \ALT_INV_address[1]~input_o\ $end
$var wire 1 } \ALT_INV_Equal0~1_combout\ $end
$var wire 1 ~ \ALT_INV_Equal0~0_combout\ $end
$upscope $end
$upscope $end
$enddefinitions $end
#0
$dumpvars
05
16
x7
18
19
1:
1;
1<
1=
0R
0S
0T
0U
0V
0W
0X
0Y
0Z
0[
0\
1]
0^
0_
0`
0a
0b
0c
1d
0e
1f
0g
0h
0i
0j
0k
0l
1m
1n
1o
1p
1q
1r
1s
1t
1u
1v
1w
1x
1y
1z
1{
1|
0}
0~
0!
0"
0#
0$
0%
0&
0'
0(
0)
0*
0+
0,
0-
0.
0/
00
0>
0?
0@
0A
0B
0C
0D
0E
0F
0G
0H
0I
0J
0K
0L
0M
0N
0O
0P
0Q
01
02
03
04
$end
#10000
10
1M
1V
0y
1e
1R
1Q
14
#20000
00
1/
0M
1L
1g
0V
1y
0|
1h
0e
0R
1S
0Q
1P
04
13
#30000
10
1M
1V
0y
1e
1R
1Q
14
#40000
00
0/
1.
0M
0L
1K
1i
0g
0V
1y
1|
0z
1j
0h
0e
0R
0S
1T
0Q
0P
1O
04
03
12
#50000
10
1M
1V
0y
1e
1R
1Q
14
#60000
00
1/
0M
1L
1g
0V
1y
0|
1h
0e
0R
1S
0Q
1P
04
13
#70000
10
1M
1V
0y
1e
1R
1Q
14
#80000
00
0/
0.
1-
0M
0L
0K
1J
1k
0i
0g
0V
1y
1|
1z
0{
1l
0j
0h
0e
0R
0S
0T
1U
0Q
0P
0O
1N
04
03
02
11
#90000
10
1M
1V
0y
1e
1R
1Q
14
#100000
00
1/
0M
1L
1g
0V
1y
0|
1h
0e
0R
1S
0Q
1P
04
13
#110000
10
1M
1V
0y
1e
1R
1Q
14
#120000
00
0/
1.
0M
0L
1K
1i
0g
0V
1y
1|
0z
1j
0h
0e
0R
0S
1T
0Q
0P
1O
04
03
12
#130000
10
1M
1V
0y
1e
1R
1Q
14
#140000
00
1/
0M
1L
1g
0V
1y
0|
1h
0e
0R
1S
0Q
1P
04
13
#150000
10
1M
1V
0y
1e
1R
1Q
14
#160000
00
0/
0.
0-
1,
0M
0L
0K
0J
1I
1W
0k
0i
0g
0V
1y
1|
1z
1{
0x
0]
0l
0j
0h
0e
1~
0f
0R
0S
0T
0U
0Q
0P
0O
0N
04
03
02
01
zR
zS
zT
zU
zQ
zP
zO
zN
z4
z3
z2
z1
#170000
10
1M
1V
0y
#180000
00
1/
0M
1L
1g
0V
1y
0|
#190000
10
1M
1V
0y
#200000
00
0/
1.
0M
0L
1K
1i
0g
0V
1y
1|
0z
#210000
10
1M
1V
0y
#220000
00
1/
0M
1L
1g
0V
1y
0|
#230000
10
1M
1V
0y
#240000
00
0/
0.
1-
0M
0L
0K
1J
1k
0i
0g
0V
1y
1|
1z
0{
#250000
10
1M
1V
0y
#260000
00
1/
0M
1L
1g
0V
1y
0|
#270000
10
1M
1V
0y
#280000
00
0/
1.
0M
0L
1K
1i
0g
0V
1y
1|
0z
#290000
10
1M
1V
0y
#300000
00
1/
0M
1L
1g
0V
1y
0|
#310000
10
1M
1V
0y
#320000
00
0/
0.
0-
0,
1+
0M
0L
0K
0J
0I
1H
1X
0W
0k
0i
0g
0V
1y
1|
1z
1{
1x
0w
#330000
10
1M
1V
0y
#340000
00
1/
0M
1L
1g
0V
1y
0|
#350000
10
1M
1V
0y
#360000
00
0/
1.
0M
0L
1K
1i
0g
0V
1y
1|
0z
#370000
10
1M
1V
0y
#380000
00
1/
0M
1L
1g
0V
1y
0|
#390000
10
1M
1V
0y
#400000
00
0/
0.
1-
0M
0L
0K
1J
1k
0i
0g
0V
1y
1|
1z
0{
#410000
10
1M
1V
0y
#420000
00
1/
0M
1L
1g
0V
1y
0|
#430000
10
1M
1V
0y
#440000
00
0/
1.
0M
0L
1K
1i
0g
0V
1y
1|
0z
#450000
10
1M
1V
0y
#460000
00
1/
0M
1L
1g
0V
1y
0|
#470000
10
1M
1V
0y
#480000
00
0/
0.
0-
1,
0M
0L
0K
0J
1I
1W
0k
0i
0g
0V
1y
1|
1z
1{
0x
#490000
10
1M
1V
0y
#500000
00
1/
0M
1L
1g
0V
1y
0|
#510000
10
1M
1V
0y
#520000
00
0/
1.
0M
0L
1K
1i
0g
0V
1y
1|
0z
#530000
10
1M
1V
0y
#540000
00
1/
0M
1L
1g
0V
1y
0|
#550000
10
1M
1V
0y
#560000
00
0/
0.
1-
0M
0L
0K
1J
1k
0i
0g
0V
1y
1|
1z
0{
#570000
10
1M
1V
0y
#580000
00
1/
0M
1L
1g
0V
1y
0|
#590000
10
1M
1V
0y
#600000
00
0/
1.
0M
0L
1K
1i
0g
0V
1y
1|
0z
#610000
10
1M
1V
0y
#620000
00
1/
0M
1L
1g
0V
1y
0|
#630000
10
1M
1V
0y
#640000
00
0/
0.
0-
0,
0+
1*
0M
0L
0K
0J
0I
0H
1G
1Y
0X
0W
0k
0i
0g
0V
1y
1|
1z
1{
1x
1w
0v
#650000
10
1M
1V
0y
#660000
00
1/
0M
1L
1g
0V
1y
0|
#670000
10
1M
1V
0y
#680000
00
0/
1.
0M
0L
1K
1i
0g
0V
1y
1|
0z
#690000
10
1M
1V
0y
#700000
00
1/
0M
1L
1g
0V
1y
0|
#710000
10
1M
1V
0y
#720000
00
0/
0.
1-
0M
0L
0K
1J
1k
0i
0g
0V
1y
1|
1z
0{
#730000
10
1M
1V
0y
#740000
00
1/
0M
1L
1g
0V
1y
0|
#750000
10
1M
1V
0y
#760000
00
0/
1.
0M
0L
1K
1i
0g
0V
1y
1|
0z
#770000
10
1M
1V
0y
#780000
00
1/
0M
1L
1g
0V
1y
0|
#790000
10
1M
1V
0y
#800000
00
0/
0.
0-
1,
0M
0L
0K
0J
1I
1W
0k
0i
0g
0V
1y
1|
1z
1{
0x
#810000
10
1M
1V
0y
#820000
00
1/
0M
1L
1g
0V
1y
0|
#830000
10
1M
1V
0y
#840000
00
0/
1.
0M
0L
1K
1i
0g
0V
1y
1|
0z
#850000
10
1M
1V
0y
#860000
00
1/
0M
1L
1g
0V
1y
0|
#870000
10
1M
1V
0y
#880000
00
0/
0.
1-
0M
0L
0K
1J
1k
0i
0g
0V
1y
1|
1z
0{
#890000
10
1M
1V
0y
#900000
00
1/
0M
1L
1g
0V
1y
0|
#910000
10
1M
1V
0y
#920000
00
0/
1.
0M
0L
1K
1i
0g
0V
1y
1|
0z
#930000
10
1M
1V
0y
#940000
00
1/
0M
1L
1g
0V
1y
0|
#950000
10
1M
1V
0y
#960000
00
0/
0.
0-
0,
1+
0M
0L
0K
0J
0I
1H
1X
0W
0k
0i
0g
0V
1y
1|
1z
1{
1x
0w
#970000
10
1M
1V
0y
#980000
00
1/
0M
1L
1g
0V
1y
0|
#990000
10
1M
1V
0y
