LAB_VHDL/3-Porta_XOR/simulation/qsim/port_XOR.msim.vcd
$comment
	File created using the following command:
		vcd file port_XOR.msim.vcd -direction
$end
$date
	Wed Dec 05 00:10:48 2018
$end
$version
	ModelSim Version 10.5b
$end
$timescale
	1ps
$end

$scope module port_xor_vhd_vec_tst $end
$var wire 1 ! A $end
$var wire 1 " B $end
$var wire 1 # S $end

$scope module i1 $end
$var wire 1 $ gnd $end
$var wire 1 % vcc $end
$var wire 1 & unknown $end
$var wire 1 ' devoe $end
$var wire 1 ( devclrn $end
$var wire 1 ) devpor $end
$var wire 1 * ww_devoe $end
$var wire 1 + ww_devclrn $end
$var wire 1 , ww_devpor $end
$var wire 1 - ww_A $end
$var wire 1 . ww_B $end
$var wire 1 / ww_S $end
$var wire 1 0 \S~output_o\ $end
$var wire 1 1 \A~input_o\ $end
$var wire 1 2 \B~input_o\ $end
$var wire 1 3 \G3|R~0_combout\ $end
$var wire 1 4 \ALT_INV_A~input_o\ $end
$var wire 1 5 \ALT_INV_B~input_o\ $end
$upscope $end
$upscope $end
$enddefinitions $end
#0
$dumpvars
0!
0"
0#
0$
1%
x&
1'
1(
1)
1*
1+
1,
0-
0.
0/
00
01
02
03
14
15
$end
#10000
1!
1-
11
04
13
10
1/
1#
#20000
0!
1"
0-
1.
12
01
14
05
#30000
1!
1-
11
04
03
00
0/
0#
#40000
0!
0"
0-
0.
02
01
14
15
#50000
1!
1-
11
04
13
10
1/
1#
#60000
0!
1"
0-
1.
12
01
14
05
#70000
1!
1-
11
04
03
00
0/
0#
#80000
0!
0"
0-
0.
02
01
14
15
#90000
1!
1-
11
04
13
10
1/
1#
#100000
0!
1"
0-
1.
12
01
14
05
#110000
1!
1-
11
04
03
00
0/
0#
#120000
0!
0"
0-
0.
02
01
14
15
#130000
1!
1-
11
04
13
10
1/
1#
#140000
0!
1"
0-
1.
12
01
14
05
#150000
1!
1-
11
04
03
00
0/
0#
#160000
0!
0"
0-
0.
02
01
14
15
#170000
1!
1-
11
04
13
10
1/
1#
#180000
0!
1"
0-
1.
12
01
14
05
#190000
1!
1-
11
04
03
00
0/
0#
#200000
0!
0"
0-
0.
02
01
14
15
#210000
1!
1-
11
04
13
10
1/
1#
#220000
0!
1"
0-
1.
12
01
14
05
#230000
1!
1-
11
04
03
00
0/
0#
#240000
0!
0"
0-
0.
02
01
14
15
#250000
1!
1-
11
04
13
10
1/
1#
#260000
0!
1"
0-
1.
12
01
14
05
#270000
1!
1-
11
04
03
00
0/
0#
#280000
0!
0"
0-
0.
02
01
14
15
#290000
1!
1-
11
04
13
10
1/
1#
#300000
0!
1"
0-
1.
12
01
14
05
#310000
1!
1-
11
04
03
00
0/
0#
#320000
0!
0"
0-
0.
02
01
14
15
#330000
1!
1-
11
04
13
10
1/
1#
#340000
0!
1"
0-
1.
12
01
14
05
#350000
1!
1-
11
04
03
00
0/
0#
#360000
0!
0"
0-
0.
02
01
14
15
#370000
1!
1-
11
04
13
10
1/
1#
#380000
0!
1"
0-
1.
12
01
14
05
#390000
1!
1-
11
04
03
00
0/
0#
#400000
0!
0"
0-
0.
02
01
14
15
#410000
1!
1-
11
04
13
10
1/
1#
#420000
0!
1"
0-
1.
12
01
14
05
#430000
1!
1-
11
04
03
00
0/
0#
#440000
0!
0"
0-
0.
02
01
14
15
#450000
1!
1-
11
04
13
10
1/
1#
#460000
0!
1"
0-
1.
12
01
14
05
#470000
1!
1-
11
04
03
00
0/
0#
#480000
0!
0"
0-
0.
02
01
14
15
#490000
1!
1-
11
04
13
10
1/
1#
#500000
0!
1"
0-
1.
12
01
14
05
#510000
1!
1-
11
04
03
00
0/
0#
#520000
0!
0"
0-
0.
02
01
14
15
#530000
1!
1-
11
04
13
10
1/
1#
#540000
0!
1"
0-
1.
12
01
14
05
#550000
1!
1-
11
04
03
00
0/
0#
#560000
0!
0"
0-
0.
02
01
14
15
#570000
1!
1-
11
04
13
10
1/
1#
#580000
0!
1"
0-
1.
12
01
14
05
#590000
1!
1-
11
04
03
00
0/
0#
#600000
0!
0"
0-
0.
02
01
14
15
#610000
1!
1-
11
04
13
10
1/
1#
#620000
0!
1"
0-
1.
12
01
14
05
#630000
1!
1-
11
04
03
00
0/
0#
#640000
0!
0"
0-
0.
02
01
14
15
#650000
1!
1-
11
04
13
10
1/
1#
#660000
0!
1"
0-
1.
12
01
14
05
#670000
1!
1-
11
04
03
00
0/
0#
#680000
0!
0"
0-
0.
02
01
14
15
#690000
1!
1-
11
04
13
10
1/
1#
#700000
0!
1"
0-
1.
12
01
14
05
#710000
1!
1-
11
04
03
00
0/
0#
#720000
0!
0"
0-
0.
02
01
14
15
#730000
1!
1-
11
04
13
10
1/
1#
#740000
0!
1"
0-
1.
12
01
14
05
#750000
1!
1-
11
04
03
00
0/
0#
#760000
0!
0"
0-
0.
02
01
14
15
#770000
1!
1-
11
04
13
10
1/
1#
#780000
0!
1"
0-
1.
12
01
14
05
#790000
1!
1-
11
04
03
00
0/
0#
#800000
0!
0"
0-
0.
02
01
14
15
#810000
1!
1-
11
04
13
10
1/
1#
#820000
0!
1"
0-
1.
12
01
14
05
#830000
1!
1-
11
04
03
00
0/
0#
#840000
0!
0"
0-
0.
02
01
14
15
#850000
1!
1-
11
04
13
10
1/
1#
#860000
0!
1"
0-
1.
12
01
14
05
#870000
1!
1-
11
04
03
00
0/
0#
#880000
0!
0"
0-
0.
02
01
14
15
#890000
1!
1-
11
04
13
10
1/
1#
#900000
0!
1"
0-
1.
12
01
14
05
#910000
1!
1-
11
04
03
00
0/
0#
#920000
0!
0"
0-
0.
02
01
14
15
#930000
1!
1-
11
04
13
10
1/
1#
#940000
0!
1"
0-
1.
12
01
14
05
#950000
1!
1-
11
04
03
00
0/
0#
#960000
0!
0"
0-
0.
02
01
14
15
#970000
1!
1-
11
04
13
10
1/
1#
#980000
0!
1"
0-
1.
12
01
14
05
#990000
1!
1-
11
04
03
00
0/
0#
